simulation/qsim/practica5.msim.vcd
$comment
	File created using the following command:
		vcd file practica5.msim.vcd -direction
$end
$date
	Tue May 17 01:17:40 2022
$end
$version
	ModelSim Version 2020.1
$end
$timescale
	1ps
$end

$scope module practica5_vhd_vec_tst $end
$var wire 1 ! clk $end
$var wire 1 " ClrCounter $end
$var wire 1 # FC $end
$var wire 1 $ IncCounter $end

$scope module i1 $end
$var wire 1 % gnd $end
$var wire 1 & vcc $end
$var wire 1 ' unknown $end
$var wire 1 ( devoe $end
$var wire 1 ) devclrn $end
$var wire 1 * devpor $end
$var wire 1 + ww_devoe $end
$var wire 1 , ww_devclrn $end
$var wire 1 - ww_devpor $end
$var wire 1 . ww_FC $end
$var wire 1 / ww_clk $end
$var wire 1 0 ww_ClrCounter $end
$var wire 1 1 ww_IncCounter $end
$var wire 1 2 \~QUARTUS_CREATED_ADC1~_CHSEL_bus\ [4] $end
$var wire 1 3 \~QUARTUS_CREATED_ADC1~_CHSEL_bus\ [3] $end
$var wire 1 4 \~QUARTUS_CREATED_ADC1~_CHSEL_bus\ [2] $end
$var wire 1 5 \~QUARTUS_CREATED_ADC1~_CHSEL_bus\ [1] $end
$var wire 1 6 \~QUARTUS_CREATED_ADC1~_CHSEL_bus\ [0] $end
$var wire 1 7 \~QUARTUS_CREATED_ADC2~_CHSEL_bus\ [4] $end
$var wire 1 8 \~QUARTUS_CREATED_ADC2~_CHSEL_bus\ [3] $end
$var wire 1 9 \~QUARTUS_CREATED_ADC2~_CHSEL_bus\ [2] $end
$var wire 1 : \~QUARTUS_CREATED_ADC2~_CHSEL_bus\ [1] $end
$var wire 1 ; \~QUARTUS_CREATED_ADC2~_CHSEL_bus\ [0] $end
$var wire 1 < \clk~inputclkctrl_INCLK_bus\ [3] $end
$var wire 1 = \clk~inputclkctrl_INCLK_bus\ [2] $end
$var wire 1 > \clk~inputclkctrl_INCLK_bus\ [1] $end
$var wire 1 ? \clk~inputclkctrl_INCLK_bus\ [0] $end
$var wire 1 @ \~QUARTUS_CREATED_GND~I_combout\ $end
$var wire 1 A \~QUARTUS_CREATED_UNVM~~busy\ $end
$var wire 1 B \~QUARTUS_CREATED_ADC1~~eoc\ $end
$var wire 1 C \~QUARTUS_CREATED_ADC2~~eoc\ $end
$var wire 1 D \FC~output_o\ $end
$var wire 1 E \clk~input_o\ $end
$var wire 1 F \clk~inputclkctrl_outclk\ $end
$var wire 1 G \ClrCounter~input_o\ $end
$var wire 1 H \inst|cnt~2_combout\ $end
$var wire 1 I \IncCounter~input_o\ $end
$var wire 1 J \inst|cnt[0]~1_combout\ $end
$var wire 1 K \inst|cnt~3_combout\ $end
$var wire 1 L \inst|cnt~0_combout\ $end
$var wire 1 M \inst|Equal0~0_combout\ $end
$var wire 1 N \inst|FC~q\ $end
$var wire 1 O \inst|cnt\ [2] $end
$var wire 1 P \inst|cnt\ [1] $end
$var wire 1 Q \inst|cnt\ [0] $end
$upscope $end
$upscope $end
$enddefinitions $end
#0
$dumpvars
0!
0"
0#
1$
0%
1&
x'
1(
1)
1*
1+
1,
1-
0.
0/
00
11
0@
zA
zB
zC
0D
0E
0F
0G
1H
1I
1J
0K
0L
0M
0N
0O
0P
0Q
1<
1=
1>
0?
02
03
04
05
06
07
08
09
0:
0;
$end
#25000
1!
1/
1E
1?
1F
1Q
0H
1K
#50000
0!
0/
0E
0?
0F
#75000
1!
1/
1E
1?
1F
0Q
1P
1H
#100000
0!
0/
0E
0?
0F
#125000
1!
1/
1E
1?
1F
1Q
0H
0K
1L
#150000
0!
0/
0E
0?
0F
#175000
1!
1/
1E
1?
1F
0Q
0P
1O
1H
#200000
0!
0/
0E
0?
0F
#225000
1!
1/
1E
1?
1F
1Q
0H
1K
#250000
0!
0/
0E
0?
0F
#275000
1!
1/
1E
1?
1F
0Q
1P
1H
#300000
0!
0/
0E
0?
0F
#325000
1!
1/
1E
1?
1F
1Q
0H
0K
0L
1M
#350000
0!
0/
0E
0?
0F
#375000
1!
1/
1E
1?
1F
0Q
0P
0O
1N
1D
1H
0M
1.
1#
#400000
0!
0/
0E
0?
0F
#425000
1!
1/
1E
1?
1F
1Q
0N
0D
0H
1K
0.
0#
#450000
0!
0/
0E
0?
0F
#475000
1!
1/
1E
1?
1F
0Q
1P
1H
#500000
0!
0/
0E
0?
0F
#520000
1"
10
1G
0H
0K
#525000
1!
1/
1E
1?
1F
0P
#550000
0!
0/
0E
0?
0F
#560000
0"
00
0G
1H
#575000
1!
1/
1E
1?
1F
1Q
0H
1K
#600000
0!
0/
0E
0?
0F
#625000
1!
1/
1E
1?
1F
0Q
1P
1H
#650000
0!
0/
0E
0?
0F
#675000
1!
1/
1E
1?
1F
1Q
0H
0K
1L
#700000
0!
0/
0E
0?
0F
#725000
1!
1/
1E
1?
1F
0Q
0P
1O
1H
#750000
0!
0/
0E
0?
0F
#775000
1!
1/
1E
1?
1F
1Q
0H
1K
#800000
0!
0/
0E
0?
0F
#825000
1!
1/
1E
1?
1F
0Q
1P
1H
#850000
0!
0/
0E
0?
0F
#875000
1!
1/
1E
1?
1F
1Q
0H
0K
0L
1M
#900000
0!
0/
0E
0?
0F
#925000
1!
1/
1E
1?
1F
0Q
0P
0O
1N
1D
1H
0M
1.
1#
#950000
0!
0/
0E
0?
0F
#975000
1!
1/
1E
1?
1F
1Q
0N
0D
0H
1K
0.
0#
